{
  "page": 1,
  "total_results": 678,
  "total_pages": 34,
  "results": [
    {
      "original_name": "I Am Not an Animal",
      "genre_ids": [
        16,
        35
      ],
      "name": "I Am Not an Animal",
      "popularity": 9.383,
      "origin_country": [
        "GB"
      ],
      "vote_count": 203,
      "first_air_date": "2004-05-10",
      "backdrop_path": "/o8Site0BMZ8xhknKJ0m52iLfqHg.jpg",
      "original_language": "en",
      "id": 100,
      "vote_average": 9.7,
      "overview": "I Am Not An Animal is an animated comedy series about the only six talking animals in the world, whose cosseted existence in a vivisection unit is turned upside down when they are liberated by animal rights activists.",
      "poster_path": "/nMhv6jG5dtLdW7rgguYWvpbk0YN.jpg"
    },
    {
      "original_name": "Rick and Morty",
      "genre_ids": [
        16,
        35,
        10759,
        10765
      ],
      "name": "Rick and Morty",
      "popularity": 88.149,
      "origin_country": [
        "US"
      ],
      "vote_count": 1096,
      "first_air_date": "2013-12-02",
      "backdrop_path": "/mzzHr6g1yvZ05Mc7hNj3tUdy2bM.jpg",
      "original_language": "en",
      "id": 60625,
      "vote_average": 8.5,
      "overview": "Rick is a mentally-unbalanced but scientifically-gifted old man who has recently reconnected with his family. He spends most of his time involving his young grandson Morty in dangerous, outlandish adventures throughout space and alternate universes. Compounded with Morty's already unstable family life, these events cause Morty much distress at home and school.",
      "poster_path": "/qJdfO3ahgAMf2rcmhoqngjBBZW1.jpg"
    },
    {
      "original_name": "Breaking Bad",
      "genre_ids": [
        18
      ],
      "name": "Breaking Bad",
      "popularity": 80.732,
      "origin_country": [
        "US"
      ],
      "vote_count": 3072,
      "first_air_date": "2008-01-20",
      "backdrop_path": "/eSzpy96DwBujGFj0xMbXBcGcfxX.jpg",
      "original_language": "en",
      "id": 1396,
      "vote_average": 8.4,
      "overview": "When Walter White, a New Mexico chemistry teacher, is diagnosed with Stage III cancer and given a prognosis of only two years left to live. He becomes filled with a sense of fearlessness and an unrelenting desire to secure his family's financial future at any cost as he enters the dangerous world of drugs and crime.",
      "poster_path": "/1yeVJox3rjo2jBKrrihIMj7uoS9.jpg"
    },
    {
      "original_name": "Stranger Things",
      "genre_ids": [
        18,
        9648,
        10765
      ],
      "name": "Stranger Things",
      "popularity": 52.531,
      "origin_country": [
        "US"
      ],
      "vote_count": 2075,
      "first_air_date": "2016-07-15",
      "backdrop_path": "/56v2KjBlU4XaOv9rVYEQypROD7P.jpg",
      "original_language": "en",
      "id": 66732,
      "vote_average": 8.3,
      "overview": "When a young boy vanishes, a small town uncovers a mystery involving secret experiments, terrifying supernatural forces, and one strange little girl.",
      "poster_path": "/vNJ95BMCzIBJZhW0IEoxzOoW53P.jpg"
    },
    {
      "original_name": "Frozen Planet",
      "genre_ids": [
        99
      ],
      "name": "Frozen Planet",
      "popularity": 9.726,
      "origin_country": [
        "GB"
      ],
      "vote_count": 84,
      "first_air_date": "2011-10-26",
      "backdrop_path": "/syVmo7m2DPYqRoJpnlpbBQ9EXBv.jpg",
      "original_language": "en",
      "id": 8724,
      "vote_average": 8.1,
      "overview": "David Attenborough travels to the end of the earth, taking viewers on an extraordinary journey across the polar regions of our planet.",
      "poster_path": "/sFAssIrNY2ileQPeUf99Dna3yzN.jpg"
    },
    {
      "original_name": "Planet Earth II",
      "genre_ids": [
        99,
        10751
      ],
      "name": "Planet Earth II",
      "popularity": 19.318,
      "origin_country": [
        "GB"
      ],
      "vote_count": 281,
      "first_air_date": "2016-11-06",
      "backdrop_path": "/xIt4DDYipMPNu2HDBrhUS4ndSYb.jpg",
      "original_language": "en",
      "id": 68595,
      "vote_average": 8.3,
      "overview": "David Attenborough presents a documentary series exploring how animals meet the challenges of surviving in the most iconic habitats on earth.",
      "poster_path": "/uy5QoTu8fc6fGXMCTMbpQJFUEB0.jpg"
    },
    {
      "original_name": "Sherlock",
      "genre_ids": [
        80,
        18,
        9648
      ],
      "name": "Sherlock",
      "popularity": 38.425,
      "origin_country": [
        "GB"
      ],
      "vote_count": 1595,
      "first_air_date": "2010-07-25",
      "backdrop_path": "/bvS50jBZXtglmLu72EAt5KgJBrL.jpg",
      "original_language": "en",
      "id": 19885,
      "vote_average": 8.3,
      "overview": "A modern update finds the famous sleuth and his doctor partner solving crime in 21st century London.",
      "poster_path": "/f9zGxLHGyQB10cMDZNY5ZcGKhZi.jpg"
    },
    {
      "original_name": "Planet Earth",
      "genre_ids": [
        99
      ],
      "name": "Planet Earth",
      "popularity": 17.523,
      "origin_country": [
        "GB"
      ],
      "vote_count": 449,
      "first_air_date": "2006-03-05",
      "backdrop_path": "/4AJnC8L5CXdqb6tMeUBL5jdHfuG.jpg",
      "original_language": "en",
      "id": 1044,
      "vote_average": 8.3,
      "overview": "David Attenborough celebrates the amazing variety of the natural world in this epic documentary series, filmed over four years across 64 different countries.",
      "poster_path": "/tI5hLHgrfOTOhPjX22vlo9YsdgE.jpg"
    },
    {
      "original_name": "The Wire",
      "genre_ids": [
        80,
        18
      ],
      "name": "The Wire",
      "popularity": 33.656,
      "origin_country": [
        "US"
      ],
      "vote_count": 756,
      "first_air_date": "2002-06-02",
      "backdrop_path": "/4hWfYN3wiOZZXC7t6B70BF9iUvk.jpg",
      "original_language": "en",
      "id": 1438,
      "vote_average": 8.3,
      "overview": "Told from the points of view of both the Baltimore homicide and narcotics detectives and their targets, the series captures a universe in which the national war on drugs has become a permanent, self-sustaining bureaucracy, and distinctions between good and evil are routinely obliterated.",
      "poster_path": "/dg7NuKDjmS6OzuNy33qt8kSkPA1.jpg"
    },
    {
      "original_name": "カウボーイビバップ",
      "genre_ids": [
        16,
        18,
        10759,
        10765
      ],
      "name": "Cowboy Bebop",
      "popularity": 17.159,
      "origin_country": [
        "JP"
      ],
      "vote_count": 284,
      "first_air_date": "1998-04-03",
      "backdrop_path": "/pL2VkIcoHnyX5oLd3IIaANkzB01.jpg",
      "original_language": "ja",
      "id": 30991,
      "vote_average": 8.3,
      "overview": "In 2071, roughly fifty years after an accident with a hyperspace gateway made the Earth almost uninhabitable, humanity has colonized most of the rocky planets and moons of the Solar System. Amid a rising crime rate, the Inter Solar System Police (ISSP) set up a legalized contract system, in which registered bounty hunters (also referred to as \"Cowboys\") chase criminals and bring them in alive in return for a reward.",
      "poster_path": "/wjFU9z8EfOwczRTv0FrPcv9zHME.jpg"
    },
    {
      "original_name": "Fargo",
      "genre_ids": [
        80,
        18
      ],
      "name": "Fargo",
      "popularity": 24.757,
      "origin_country": [
        "US"
      ],
      "vote_count": 940,
      "first_air_date": "2014-04-15",
      "backdrop_path": "/qq1S5EjaaUrQAcMsn6raNFXpzHk.jpg",
      "original_language": "en",
      "id": 60622,
      "vote_average": 8.3,
      "overview": "A close-knit anthology series dealing with stories involving malice, violence and murder based in and around Minnesota.",
      "poster_path": "/e890UetS6XH7kqltlZ8VU6qDaHU.jpg"
    },
    {
      "original_name": "ワンパンマン",
      "genre_ids": [
        16,
        35,
        10759
      ],
      "name": "One-Punch Man",
      "popularity": 62.433,
      "origin_country": [
        "JP"
      ],
      "vote_count": 268,
      "first_air_date": "2015-10-04",
      "backdrop_path": "/s0w8JbuNNxL1YgaHeDWih12C3jG.jpg",
      "original_language": "ja",
      "id": 63926,
      "vote_average": 8.3,
      "overview": "Saitama is a hero who only became a hero for fun. After three years of “special” training, though, he’s become so strong that he’s practically invincible. In fact, he’s too strong—even his mightiest opponents are taken out with a single punch, and it turns out that being devastatingly powerful is actually kind of a bore. With his passion for being a hero lost along with his hair, yet still faced with new enemies every day, how much longer can he keep it going?",
      "poster_path": "/iE3s0lG5QVdEHOEZnoAxjmMtvne.jpg"
    },
    {
      "original_name": "Cosmos: A Personal Voyage",
      "genre_ids": [
        99
      ],
      "name": "Cosmos: A Personal Voyage",
      "popularity": 7.569,
      "origin_country": [
        "US"
      ],
      "vote_count": 129,
      "first_air_date": "1980-09-28",
      "backdrop_path": "/hd0Qqv9EcLzELE6UuxRFKAGvgq9.jpg",
      "original_language": "en",
      "id": 1430,
      "vote_average": 8.2,
      "overview": "Cosmos: A Personal Voyage is a thirteen-part television series written by Carl Sagan, Ann Druyan, and Steven Soter, with Sagan as presenter. It was executive-produced by Adrian Malone, produced by David Kennard, Geoffrey Haines-Stiles and Gregory Andorfer, and directed by the producers, David Oyster, Richard Wells, Tom Weidlinger, and others. It covered a wide range of scientific subjects, including the origin of life and a perspective of our place in the universe.\n\nThe series was first broadcast by the Public Broadcasting Service in 1980 and was the most widely watched series in the history of American public television until The Civil War. As of 2009, it was still the most widely watched PBS series in the world. It won an Emmy and a Peabody Award and has since been broadcast in more than 60 countries and seen by over 500 million people. A book was also published to accompany the series.",
      "poster_path": "/nOGArjE0WMkzY2GW1taJm8l9gxD.jpg"
    },
    {
      "original_name": "Peaky Blinders",
      "genre_ids": [
        80,
        18
      ],
      "name": "Peaky Blinders",
      "popularity": 30.092,
      "origin_country": [
        "GB"
      ],
      "vote_count": 425,
      "first_air_date": "2013-09-12",
      "backdrop_path": "/inPxrxF5qBQ2H5dyjcMzibX5JA6.jpg",
      "original_language": "en",
      "id": 60574,
      "vote_average": 8.3,
      "overview": "A gangster family epic set in 1919 Birmingham, England and centered on a gang who sew razor blades in the peaks of their caps, and their fierce boss Tommy Shelby, who means to move up in the world.",
      "poster_path": "/jeWoeUQyHdxGFNZCrzbOUP78FiZ.jpg"
    },
    {
      "original_name": "Over the Garden Wall",
      "genre_ids": [
        16,
        35,
        9648,
        10751,
        10765
      ],
      "name": "Over the Garden Wall",
      "popularity": 11.94,
      "origin_country": [
        "US"
      ],
      "vote_count": 170,
      "first_air_date": "2014-11-03",
      "backdrop_path": "/7vWXXOfsFiopxyuE1U303aej0fT.jpg",
      "original_language": "en",
      "id": 61617,
      "vote_average": 8.3,
      "overview": "Two brothers, Wirt and Greg, find themselves lost in the Unknown; a strange forest adrift in time. With the help of a wise old Woodsman and a foul-tempered bluebird named Beatrice, Wirt and Greg must travel across this strange land, in hope of finding their way home. Join them as they encounter surprises and obstacles on their journey through the wood.",
      "poster_path": "/2kcGFbt768xAiqvj748FFlO9Gvl.jpg"
    },
    {
      "original_name": "Monty Python's Flying Circus",
      "genre_ids": [
        35
      ],
      "name": "Monty Python's Flying Circus",
      "popularity": 13.178,
      "origin_country": [
        "GB"
      ],
      "vote_count": 228,
      "first_air_date": "1969-10-05",
      "backdrop_path": "/wmmvTK45ef2ymnB3f4quC4IEcBy.jpg",
      "original_language": "en",
      "id": 849,
      "vote_average": 8.3,
      "overview": "Monty Python’s Flying Circus is a British sketch comedy series created by the comedy group Monty Python and broadcast by the BBC from 1969 to 1974. The shows were composed of surreality, risqué or innuendo-laden humour, sight gags and observational sketches without punchlines. It also featured animations by Terry Gilliam, often sequenced or merged with live action. The first episode was recorded on 7 September and broadcast on 5 October 1969 on BBC One, with 45 episodes airing over four series from 1969 to 1974, plus two episodes for German TV.\n\nThe show often targets the idiosyncrasies of British life, especially that of professionals, and is at times politically charged. The members of Monty Python were highly educated. Terry Jones and Michael Palin are Oxford University graduates; Eric Idle, John Cleese, and Graham Chapman attended Cambridge University; and American-born member Terry Gilliam is an Occidental College graduate. Their comedy is often pointedly intellectual, with numerous erudite references to philosophers and literary figures. The series followed and elaborated upon the style used by Spike Milligan in his ground breaking series Q5, rather than the traditional sketch show format. The team intended their humour to be impossible to categorise, and succeeded so completely that the adjective \"Pythonesque\" was invented to define it and, later, similar material.",
      "poster_path": "/nKiyYqYcRcQLgkLk0LFtRgtGMen.jpg"
    },
    {
      "original_name": "Gravity Falls",
      "genre_ids": [
        16,
        35,
        9648,
        10765
      ],
      "name": "Gravity Falls",
      "popularity": 31.264,
      "origin_country": [
        "US"
      ],
      "vote_count": 219,
      "first_air_date": "2012-06-15",
      "backdrop_path": "/sJjrJWsOCUUeVMexxANNC6s3dWV.jpg",
      "original_language": "en",
      "id": 40075,
      "vote_average": 8.2,
      "overview": "Twin brother and sister Dipper and Mabel Pines are in for an unexpected adventure when they spend the summer helping their great uncle Stan run a tourist trap in the mysterious town of Gravity Falls, Oregon.",
      "poster_path": "/oGsgxjeZ9rd20eCJsGSMGgWvl4P.jpg"
    },
    {
      "original_name": "Peep Show",
      "genre_ids": [
        35
      ],
      "name": "Peep Show",
      "popularity": 11.539,
      "origin_country": [
        "GB"
      ],
      "vote_count": 129,
      "first_air_date": "2003-09-19",
      "backdrop_path": "/xoWBzIxfza235mOkvXt40uZSbqS.jpg",
      "original_language": "en",
      "id": 815,
      "vote_average": 8.2,
      "overview": "Peep Show is an award-winning British sitcom starring David Mitchell and Robert Webb. The television programme is written by Jesse Armstrong and Sam Bain, with additional material by Mitchell and Webb amongst others. It has been broadcast on Channel 4 since 2003. The show's eighth series makes it the longest-returning comedy in Channel 4 history. Stylistically, the show uses point of view shots with the thoughts of main characters Mark and Jeremy audible as voiceovers.\n\nPeep Show follows the lives of two men from their twenties to thirties, Mark Corrigan, who has steady employment for most of the series, and Jeremy \"Jez\" Usbourne, an unemployed would-be musician. The pair met at the fictional Dartmouth University, and now share a flat in Croydon, South London. Mark is initially a loan manager at the fictional JLB Credit, later becoming a waiter, and then a bathroom supplies salesman. He is financially secure, but awkward and socially inept, with a pessimistic and cynical attitude. Jeremy, having split up with his girlfriend Big Suze prior to the first episode, now lives in Mark's spare room. He usually has a much more optimistic and energetic outlook on the world than Mark, yet his self-proclaimed talent as a musician has yet to be recognised, and he is not as popular or attractive as he would like to think himself, although he is more successful with the opposite sex than Mark.",
      "poster_path": "/pqrGyLYS5WIsLXwCuxc46sOP50F.jpg"
    },
    {
      "original_name": "DEATH NOTE",
      "genre_ids": [
        16,
        9648
      ],
      "name": "Death Note",
      "popularity": 57.342,
      "origin_country": [
        "JP"
      ],
      "vote_count": 443,
      "first_air_date": "2006-10-04",
      "backdrop_path": "/A2j5g79EcWn1oTNCW9PSo7NZRfv.jpg",
      "original_language": "ja",
      "id": 13916,
      "vote_average": 8.3,
      "overview": "Light Yagami is an ace student with great prospects—and he’s bored out of his mind. But all that changes when he finds the Death Note, a notebook dropped by a rogue Shinigami death god. Any human whose name is written in the notebook dies, and Light has vowed to use the power of the Death Note to rid the world of evil. But will Light succeed in his noble goal, or will the Death Note turn him into the very thing he fights against?",
      "poster_path": "/nhIkKuOpOXOE6ud0naCHTjRoOwq.jpg"
    },
    {
      "original_name": "Young Justice",
      "genre_ids": [
        16,
        10759
      ],
      "name": "Young Justice",
      "popularity": 34.524,
      "origin_country": [
        "US"
      ],
      "vote_count": 94,
      "first_air_date": "2010-11-26",
      "backdrop_path": "/gqPp3oSmWsFNt0T3uxAbYKCzED2.jpg",
      "original_language": "en",
      "id": 33217,
      "vote_average": 8.2,
      "overview": "Teenage superheroes strive to prove themselves as members of the Justice League.",
      "poster_path": "/jBRUIjTAJdgX7cfO9wnMBtPywew.jpg"
    }
  ]
}
